Data-607 Project-3
…
4] Success rate per region

attack %>%
  group_by(iyear,region_txt) %>% # allow operations to be performed by groups
  count() %>% # In case, count success rate conditional on the year and country
  arrange(desc(n))%>%  # arrange in descending order
  print(n = 10)%>% # print 
  ggplot(aes(iyear, n)) +  # x axis- year, y = success rate
  geom_line(aes(group = region_txt), colour = "grey50") + 
  geom_point(aes(colour = region_txt))

## # A tibble: 529 x 3
## # Groups:   iyear, region_txt [529]
##    iyear region_txt                     n
##    <int> <chr>                      <int>
##  1  2014 Middle East & North Africa  6939
##  2  2016 Middle East & North Africa  6115
##  3  2015 Middle East & North Africa  6036
##  4  2014 South Asia                  4998
##  5  2013 South Asia                  4612
##  6  2015 South Asia                  4585
##  7  2013 Middle East & North Africa  4560
##  8  2012 South Asia                  3803
##  9  2017 Middle East & North Africa  3780
## 10  2016 South Asia                  3639
## # ... with 519 more rows
…
5] Analyze Success rate for selected countries

attack %>%
  # With multiple conditions for filter, make sure to use %in% and not == 
filter(parse_character(country_txt) %in% c("Singapore", "China","United States","United Kingdom")) %>% # select four countries
  group_by(iyear,country_txt) %>% # allow operations to be performed by groups
  count() %>% # In case, count success rate conditional on the year and country
  print(n = 10)%>%
  ggplot(aes(iyear, n)) +  # x axis- year, y = success rate
  geom_line(aes(group = country_txt), colour = "grey50") + 
  geom_point(aes(colour = country_txt))

## # A tibble: 126 x 3
## # Groups:   iyear, country_txt [126]
##    iyear country_txt        n
##    <int> <chr>          <int>
##  1  1970 United Kingdom    12
##  2  1970 United States    468
##  3  1971 United Kingdom    81
##  4  1971 United States    247
##  5  1972 United Kingdom   292
##  6  1972 United States     68
##  7  1973 United Kingdom   189
##  8  1973 United States     58
##  9  1974 Singapore          1
## 10  1974 United Kingdom   203
## # ... with 116 more rows
…
# Criterion 1: POLITICAL, ECONOMIC, RELIGIOUS, OR SOCIAL GOAL (CRIT1)
# 1 =   The incident meets Criterion 1.
# 0 = "No   The incident does not meet Criterion 1.
attack %>%
# With multiple conditions for filter, make sure to use %in% and not == 
filter(parse_character(country_txt) %in% c("United Kingdom")) %>% # select four countries
group_by(iyear,crit1) %>% # allow operations to be performed by groups
count() %>% # In case, count success rate conditional on the year and crit1
print(n=5) %>%
ggplot(aes(iyear, n, fill=crit1)) +  # x axis- year, y = success rate
geom_bar(stat="identity") +  # stacking on top of each other
  ggtitle("Criterion 1")

## # A tibble: 63 x 3
## # Groups:   iyear, crit1 [63]
##   iyear crit1     n
##   <int> <int> <int>
## 1  1970     1    12
## 2  1971     1    81
## 3  1972     1   292
## 4  1973     1   189
## 5  1974     1   203
## # ... with 58 more rows
…
